
            <?php 
            $tab_cat_carte = getAllDataWhere('CategorieProd','Carte');
            echo "</p> tab_cat_carte = $tab_cat_carte";
            $toto = '#Box-'.$cat_i[nom];
            echo "</p> toto = $toto";?>